(['/Users/hp/WebDev/muis-id-museaal-nr/muis.py'],
 ['/Users/hp/WebDev/muis-id-museaal-nr', '/Users/hp/WebDev/muis-id-museaal-nr'],
 ['codecs'],
 ['/Library/Frameworks/Python.framework/Versions/3.9/lib/python3.9/site-packages/_pyinstaller_hooks_contrib/hooks/stdhooks',
  '/Library/Frameworks/Python.framework/Versions/3.9/lib/python3.9/site-packages/_pyinstaller_hooks_contrib/hooks/stdhooks/__pycache__',
  '/Library/Frameworks/Python.framework/Versions/3.9/lib/python3.9/site-packages/_pyinstaller_hooks_contrib/hooks/rthooks',
  '/Library/Frameworks/Python.framework/Versions/3.9/lib/python3.9/site-packages/_pyinstaller_hooks_contrib/hooks/rthooks/__pycache__',
  '/Library/Frameworks/Python.framework/Versions/3.9/lib/python3.9/site-packages/_pyinstaller_hooks_contrib/hooks'],
 [],
 [],
 False,
 False,
 False,
 '3.9.1 (v3.9.1:1e5d33e9b9, Dec  7 2020, 12:10:52) \n'
 '[Clang 6.0 (clang-600.0.57)]',
 [('pyi_rth_multiprocessing',
   '/Library/Frameworks/Python.framework/Versions/3.9/lib/python3.9/site-packages/PyInstaller/hooks/rthooks/pyi_rth_multiprocessing.py',
   'PYSOURCE'),
  ('pyi_rth_certifi',
   '/Library/Frameworks/Python.framework/Versions/3.9/lib/python3.9/site-packages/_pyinstaller_hooks_contrib/hooks/rthooks/pyi_rth_certifi.py',
   'PYSOURCE'),
  ('muis', '/Users/hp/WebDev/muis-id-museaal-nr/muis.py', 'PYSOURCE')],
 [('ssl',
   '/Library/Frameworks/Python.framework/Versions/3.9/lib/python3.9/ssl.py',
   'PYMODULE'),
  ('calendar',
   '/Library/Frameworks/Python.framework/Versions/3.9/lib/python3.9/calendar.py',
   'PYMODULE'),
  ('argparse',
   '/Library/Frameworks/Python.framework/Versions/3.9/lib/python3.9/argparse.py',
   'PYMODULE'),
  ('textwrap',
   '/Library/Frameworks/Python.framework/Versions/3.9/lib/python3.9/textwrap.py',
   'PYMODULE'),
  ('shutil',
   '/Library/Frameworks/Python.framework/Versions/3.9/lib/python3.9/shutil.py',
   'PYMODULE'),
  ('zipfile',
   '/Library/Frameworks/Python.framework/Versions/3.9/lib/python3.9/zipfile.py',
   'PYMODULE'),
  ('py_compile',
   '/Library/Frameworks/Python.framework/Versions/3.9/lib/python3.9/py_compile.py',
   'PYMODULE'),
  ('importlib.machinery',
   '/Library/Frameworks/Python.framework/Versions/3.9/lib/python3.9/importlib/machinery.py',
   'PYMODULE'),
  ('importlib',
   '/Library/Frameworks/Python.framework/Versions/3.9/lib/python3.9/importlib/__init__.py',
   'PYMODULE'),
  ('importlib._common',
   '/Library/Frameworks/Python.framework/Versions/3.9/lib/python3.9/importlib/_common.py',
   'PYMODULE'),
  ('tempfile',
   '/Library/Frameworks/Python.framework/Versions/3.9/lib/python3.9/tempfile.py',
   'PYMODULE'),
  ('random',
   '/Library/Frameworks/Python.framework/Versions/3.9/lib/python3.9/random.py',
   'PYMODULE'),
  ('statistics',
   '/Library/Frameworks/Python.framework/Versions/3.9/lib/python3.9/statistics.py',
   'PYMODULE'),
  ('decimal',
   '/Library/Frameworks/Python.framework/Versions/3.9/lib/python3.9/decimal.py',
   'PYMODULE'),
  ('_pydecimal',
   '/Library/Frameworks/Python.framework/Versions/3.9/lib/python3.9/_pydecimal.py',
   'PYMODULE'),
  ('contextvars',
   '/Library/Frameworks/Python.framework/Versions/3.9/lib/python3.9/contextvars.py',
   'PYMODULE'),
  ('fractions',
   '/Library/Frameworks/Python.framework/Versions/3.9/lib/python3.9/fractions.py',
   'PYMODULE'),
  ('numbers',
   '/Library/Frameworks/Python.framework/Versions/3.9/lib/python3.9/numbers.py',
   'PYMODULE'),
  ('hashlib',
   '/Library/Frameworks/Python.framework/Versions/3.9/lib/python3.9/hashlib.py',
   'PYMODULE'),
  ('logging',
   '/Library/Frameworks/Python.framework/Versions/3.9/lib/python3.9/logging/__init__.py',
   'PYMODULE'),
  ('pickle',
   '/Library/Frameworks/Python.framework/Versions/3.9/lib/python3.9/pickle.py',
   'PYMODULE'),
  ('pprint',
   '/Library/Frameworks/Python.framework/Versions/3.9/lib/python3.9/pprint.py',
   'PYMODULE'),
  ('doctest',
   '/Library/Frameworks/Python.framework/Versions/3.9/lib/python3.9/doctest.py',
   'PYMODULE'),
  ('unittest',
   '/Library/Frameworks/Python.framework/Versions/3.9/lib/python3.9/unittest/__init__.py',
   'PYMODULE'),
  ('unittest.async_case',
   '/Library/Frameworks/Python.framework/Versions/3.9/lib/python3.9/unittest/async_case.py',
   'PYMODULE'),
  ('asyncio',
   '/Library/Frameworks/Python.framework/Versions/3.9/lib/python3.9/asyncio/__init__.py',
   'PYMODULE'),
  ('asyncio.unix_events',
   '/Library/Frameworks/Python.framework/Versions/3.9/lib/python3.9/asyncio/unix_events.py',
   'PYMODULE'),
  ('asyncio.log',
   '/Library/Frameworks/Python.framework/Versions/3.9/lib/python3.9/asyncio/log.py',
   'PYMODULE'),
  ('subprocess',
   '/Library/Frameworks/Python.framework/Versions/3.9/lib/python3.9/subprocess.py',
   'PYMODULE'),
  ('signal',
   '/Library/Frameworks/Python.framework/Versions/3.9/lib/python3.9/signal.py',
   'PYMODULE'),
  ('selectors',
   '/Library/Frameworks/Python.framework/Versions/3.9/lib/python3.9/selectors.py',
   'PYMODULE'),
  ('asyncio.windows_events',
   '/Library/Frameworks/Python.framework/Versions/3.9/lib/python3.9/asyncio/windows_events.py',
   'PYMODULE'),
  ('asyncio.windows_utils',
   '/Library/Frameworks/Python.framework/Versions/3.9/lib/python3.9/asyncio/windows_utils.py',
   'PYMODULE'),
  ('asyncio.selector_events',
   '/Library/Frameworks/Python.framework/Versions/3.9/lib/python3.9/asyncio/selector_events.py',
   'PYMODULE'),
  ('asyncio.proactor_events',
   '/Library/Frameworks/Python.framework/Versions/3.9/lib/python3.9/asyncio/proactor_events.py',
   'PYMODULE'),
  ('asyncio.base_subprocess',
   '/Library/Frameworks/Python.framework/Versions/3.9/lib/python3.9/asyncio/base_subprocess.py',
   'PYMODULE'),
  ('asyncio.threads',
   '/Library/Frameworks/Python.framework/Versions/3.9/lib/python3.9/asyncio/threads.py',
   'PYMODULE'),
  ('asyncio.subprocess',
   '/Library/Frameworks/Python.framework/Versions/3.9/lib/python3.9/asyncio/subprocess.py',
   'PYMODULE'),
  ('asyncio.streams',
   '/Library/Frameworks/Python.framework/Versions/3.9/lib/python3.9/asyncio/streams.py',
   'PYMODULE'),
  ('asyncio.queues',
   '/Library/Frameworks/Python.framework/Versions/3.9/lib/python3.9/asyncio/queues.py',
   'PYMODULE'),
  ('asyncio.runners',
   '/Library/Frameworks/Python.framework/Versions/3.9/lib/python3.9/asyncio/runners.py',
   'PYMODULE'),
  ('asyncio.events',
   '/Library/Frameworks/Python.framework/Versions/3.9/lib/python3.9/asyncio/events.py',
   'PYMODULE'),
  ('asyncio.base_events',
   '/Library/Frameworks/Python.framework/Versions/3.9/lib/python3.9/asyncio/base_events.py',
   'PYMODULE'),
  ('concurrent.futures',
   '/Library/Frameworks/Python.framework/Versions/3.9/lib/python3.9/concurrent/futures/__init__.py',
   'PYMODULE'),
  ('concurrent.futures.thread',
   '/Library/Frameworks/Python.framework/Versions/3.9/lib/python3.9/concurrent/futures/thread.py',
   'PYMODULE'),
  ('queue',
   '/Library/Frameworks/Python.framework/Versions/3.9/lib/python3.9/queue.py',
   'PYMODULE'),
  ('concurrent.futures.process',
   '/Library/Frameworks/Python.framework/Versions/3.9/lib/python3.9/concurrent/futures/process.py',
   'PYMODULE'),
  ('multiprocessing.queues',
   '/Library/Frameworks/Python.framework/Versions/3.9/lib/python3.9/multiprocessing/queues.py',
   'PYMODULE'),
  ('multiprocessing.synchronize',
   '/Library/Frameworks/Python.framework/Versions/3.9/lib/python3.9/multiprocessing/synchronize.py',
   'PYMODULE'),
  ('multiprocessing.heap',
   '/Library/Frameworks/Python.framework/Versions/3.9/lib/python3.9/multiprocessing/heap.py',
   'PYMODULE'),
  ('multiprocessing.resource_tracker',
   '/Library/Frameworks/Python.framework/Versions/3.9/lib/python3.9/multiprocessing/resource_tracker.py',
   'PYMODULE'),
  ('multiprocessing.spawn',
   '/Library/Frameworks/Python.framework/Versions/3.9/lib/python3.9/multiprocessing/spawn.py',
   'PYMODULE'),
  ('runpy',
   '/Library/Frameworks/Python.framework/Versions/3.9/lib/python3.9/runpy.py',
   'PYMODULE'),
  ('pkgutil',
   '/Library/Frameworks/Python.framework/Versions/3.9/lib/python3.9/pkgutil.py',
   'PYMODULE'),
  ('zipimport',
   '/Library/Frameworks/Python.framework/Versions/3.9/lib/python3.9/zipimport.py',
   'PYMODULE'),
  ('importlib.abc',
   '/Library/Frameworks/Python.framework/Versions/3.9/lib/python3.9/importlib/abc.py',
   'PYMODULE'),
  ('typing',
   '/Library/Frameworks/Python.framework/Versions/3.9/lib/python3.9/typing.py',
   'PYMODULE'),
  ('multiprocessing.process',
   '/Library/Frameworks/Python.framework/Versions/3.9/lib/python3.9/multiprocessing/process.py',
   'PYMODULE'),
  ('multiprocessing.util',
   '/Library/Frameworks/Python.framework/Versions/3.9/lib/python3.9/multiprocessing/util.py',
   'PYMODULE'),
  ('multiprocessing.forkserver',
   '/Library/Frameworks/Python.framework/Versions/3.9/lib/python3.9/multiprocessing/forkserver.py',
   'PYMODULE'),
  ('multiprocessing.context',
   '/Library/Frameworks/Python.framework/Versions/3.9/lib/python3.9/multiprocessing/context.py',
   'PYMODULE'),
  ('multiprocessing.popen_spawn_win32',
   '/Library/Frameworks/Python.framework/Versions/3.9/lib/python3.9/multiprocessing/popen_spawn_win32.py',
   'PYMODULE'),
  ('multiprocessing.popen_forkserver',
   '/Library/Frameworks/Python.framework/Versions/3.9/lib/python3.9/multiprocessing/popen_forkserver.py',
   'PYMODULE'),
  ('multiprocessing.popen_spawn_posix',
   '/Library/Frameworks/Python.framework/Versions/3.9/lib/python3.9/multiprocessing/popen_spawn_posix.py',
   'PYMODULE'),
  ('multiprocessing.popen_fork',
   '/Library/Frameworks/Python.framework/Versions/3.9/lib/python3.9/multiprocessing/popen_fork.py',
   'PYMODULE'),
  ('multiprocessing.sharedctypes',
   '/Library/Frameworks/Python.framework/Versions/3.9/lib/python3.9/multiprocessing/sharedctypes.py',
   'PYMODULE'),
  ('ctypes',
   '/Library/Frameworks/Python.framework/Versions/3.9/lib/python3.9/ctypes/__init__.py',
   'PYMODULE'),
  ('ctypes._endian',
   '/Library/Frameworks/Python.framework/Versions/3.9/lib/python3.9/ctypes/_endian.py',
   'PYMODULE'),
  ('multiprocessing.pool',
   '/Library/Frameworks/Python.framework/Versions/3.9/lib/python3.9/multiprocessing/pool.py',
   'PYMODULE'),
  ('multiprocessing.dummy',
   '/Library/Frameworks/Python.framework/Versions/3.9/lib/python3.9/multiprocessing/dummy/__init__.py',
   'PYMODULE'),
  ('multiprocessing.dummy.connection',
   '/Library/Frameworks/Python.framework/Versions/3.9/lib/python3.9/multiprocessing/dummy/connection.py',
   'PYMODULE'),
  ('multiprocessing.managers',
   '/Library/Frameworks/Python.framework/Versions/3.9/lib/python3.9/multiprocessing/managers.py',
   'PYMODULE'),
  ('multiprocessing.shared_memory',
   '/Library/Frameworks/Python.framework/Versions/3.9/lib/python3.9/multiprocessing/shared_memory.py',
   'PYMODULE'),
  ('secrets',
   '/Library/Frameworks/Python.framework/Versions/3.9/lib/python3.9/secrets.py',
   'PYMODULE'),
  ('hmac',
   '/Library/Frameworks/Python.framework/Versions/3.9/lib/python3.9/hmac.py',
   'PYMODULE'),
  ('multiprocessing.reduction',
   '/Library/Frameworks/Python.framework/Versions/3.9/lib/python3.9/multiprocessing/reduction.py',
   'PYMODULE'),
  ('multiprocessing.resource_sharer',
   '/Library/Frameworks/Python.framework/Versions/3.9/lib/python3.9/multiprocessing/resource_sharer.py',
   'PYMODULE'),
  ('multiprocessing.connection',
   '/Library/Frameworks/Python.framework/Versions/3.9/lib/python3.9/multiprocessing/connection.py',
   'PYMODULE'),
  ('xmlrpc.client',
   '/Library/Frameworks/Python.framework/Versions/3.9/lib/python3.9/xmlrpc/client.py',
   'PYMODULE'),
  ('xmlrpc',
   '/Library/Frameworks/Python.framework/Versions/3.9/lib/python3.9/xmlrpc/__init__.py',
   'PYMODULE'),
  ('gzip',
   '/Library/Frameworks/Python.framework/Versions/3.9/lib/python3.9/gzip.py',
   'PYMODULE'),
  ('_compression',
   '/Library/Frameworks/Python.framework/Versions/3.9/lib/python3.9/_compression.py',
   'PYMODULE'),
  ('xml.parsers.expat',
   '/Library/Frameworks/Python.framework/Versions/3.9/lib/python3.9/xml/parsers/expat.py',
   'PYMODULE'),
  ('xml.parsers',
   '/Library/Frameworks/Python.framework/Versions/3.9/lib/python3.9/xml/parsers/__init__.py',
   'PYMODULE'),
  ('xml',
   '/Library/Frameworks/Python.framework/Versions/3.9/lib/python3.9/xml/__init__.py',
   'PYMODULE'),
  ('xml.sax.expatreader',
   '/Library/Frameworks/Python.framework/Versions/3.9/lib/python3.9/xml/sax/expatreader.py',
   'PYMODULE'),
  ('xml.sax.saxutils',
   '/Library/Frameworks/Python.framework/Versions/3.9/lib/python3.9/xml/sax/saxutils.py',
   'PYMODULE'),
  ('urllib.request',
   '/Library/Frameworks/Python.framework/Versions/3.9/lib/python3.9/urllib/request.py',
   'PYMODULE'),
  ('getpass',
   '/Library/Frameworks/Python.framework/Versions/3.9/lib/python3.9/getpass.py',
   'PYMODULE'),
  ('nturl2path',
   '/Library/Frameworks/Python.framework/Versions/3.9/lib/python3.9/nturl2path.py',
   'PYMODULE'),
  ('ftplib',
   '/Library/Frameworks/Python.framework/Versions/3.9/lib/python3.9/ftplib.py',
   'PYMODULE'),
  ('netrc',
   '/Library/Frameworks/Python.framework/Versions/3.9/lib/python3.9/netrc.py',
   'PYMODULE'),
  ('shlex',
   '/Library/Frameworks/Python.framework/Versions/3.9/lib/python3.9/shlex.py',
   'PYMODULE'),
  ('mimetypes',
   '/Library/Frameworks/Python.framework/Versions/3.9/lib/python3.9/mimetypes.py',
   'PYMODULE'),
  ('getopt',
   '/Library/Frameworks/Python.framework/Versions/3.9/lib/python3.9/getopt.py',
   'PYMODULE'),
  ('email.utils',
   '/Library/Frameworks/Python.framework/Versions/3.9/lib/python3.9/email/utils.py',
   'PYMODULE'),
  ('email.charset',
   '/Library/Frameworks/Python.framework/Versions/3.9/lib/python3.9/email/charset.py',
   'PYMODULE'),
  ('email.encoders',
   '/Library/Frameworks/Python.framework/Versions/3.9/lib/python3.9/email/encoders.py',
   'PYMODULE'),
  ('quopri',
   '/Library/Frameworks/Python.framework/Versions/3.9/lib/python3.9/quopri.py',
   'PYMODULE'),
  ('email.errors',
   '/Library/Frameworks/Python.framework/Versions/3.9/lib/python3.9/email/errors.py',
   'PYMODULE'),
  ('email.quoprimime',
   '/Library/Frameworks/Python.framework/Versions/3.9/lib/python3.9/email/quoprimime.py',
   'PYMODULE'),
  ('email.base64mime',
   '/Library/Frameworks/Python.framework/Versions/3.9/lib/python3.9/email/base64mime.py',
   'PYMODULE'),
  ('email._parseaddr',
   '/Library/Frameworks/Python.framework/Versions/3.9/lib/python3.9/email/_parseaddr.py',
   'PYMODULE'),
  ('http.cookiejar',
   '/Library/Frameworks/Python.framework/Versions/3.9/lib/python3.9/http/cookiejar.py',
   'PYMODULE'),
  ('http',
   '/Library/Frameworks/Python.framework/Versions/3.9/lib/python3.9/http/__init__.py',
   'PYMODULE'),
  ('urllib',
   '/Library/Frameworks/Python.framework/Versions/3.9/lib/python3.9/urllib/__init__.py',
   'PYMODULE'),
  ('urllib.response',
   '/Library/Frameworks/Python.framework/Versions/3.9/lib/python3.9/urllib/response.py',
   'PYMODULE'),
  ('urllib.error',
   '/Library/Frameworks/Python.framework/Versions/3.9/lib/python3.9/urllib/error.py',
   'PYMODULE'),
  ('email',
   '/Library/Frameworks/Python.framework/Versions/3.9/lib/python3.9/email/__init__.py',
   'PYMODULE'),
  ('email.parser',
   '/Library/Frameworks/Python.framework/Versions/3.9/lib/python3.9/email/parser.py',
   'PYMODULE'),
  ('email._policybase',
   '/Library/Frameworks/Python.framework/Versions/3.9/lib/python3.9/email/_policybase.py',
   'PYMODULE'),
  ('email.feedparser',
   '/Library/Frameworks/Python.framework/Versions/3.9/lib/python3.9/email/feedparser.py',
   'PYMODULE'),
  ('email.message',
   '/Library/Frameworks/Python.framework/Versions/3.9/lib/python3.9/email/message.py',
   'PYMODULE'),
  ('email.policy',
   '/Library/Frameworks/Python.framework/Versions/3.9/lib/python3.9/email/policy.py',
   'PYMODULE'),
  ('email.contentmanager',
   '/Library/Frameworks/Python.framework/Versions/3.9/lib/python3.9/email/contentmanager.py',
   'PYMODULE'),
  ('email.headerregistry',
   '/Library/Frameworks/Python.framework/Versions/3.9/lib/python3.9/email/headerregistry.py',
   'PYMODULE'),
  ('email.iterators',
   '/Library/Frameworks/Python.framework/Versions/3.9/lib/python3.9/email/iterators.py',
   'PYMODULE'),
  ('email.generator',
   '/Library/Frameworks/Python.framework/Versions/3.9/lib/python3.9/email/generator.py',
   'PYMODULE'),
  ('email._encoded_words',
   '/Library/Frameworks/Python.framework/Versions/3.9/lib/python3.9/email/_encoded_words.py',
   'PYMODULE'),
  ('uu',
   '/Library/Frameworks/Python.framework/Versions/3.9/lib/python3.9/uu.py',
   'PYMODULE'),
  ('optparse',
   '/Library/Frameworks/Python.framework/Versions/3.9/lib/python3.9/optparse.py',
   'PYMODULE'),
  ('email._header_value_parser',
   '/Library/Frameworks/Python.framework/Versions/3.9/lib/python3.9/email/_header_value_parser.py',
   'PYMODULE'),
  ('email.header',
   '/Library/Frameworks/Python.framework/Versions/3.9/lib/python3.9/email/header.py',
   'PYMODULE'),
  ('xml.sax',
   '/Library/Frameworks/Python.framework/Versions/3.9/lib/python3.9/xml/sax/__init__.py',
   'PYMODULE'),
  ('xml.sax.handler',
   '/Library/Frameworks/Python.framework/Versions/3.9/lib/python3.9/xml/sax/handler.py',
   'PYMODULE'),
  ('xml.sax._exceptions',
   '/Library/Frameworks/Python.framework/Versions/3.9/lib/python3.9/xml/sax/_exceptions.py',
   'PYMODULE'),
  ('xml.sax.xmlreader',
   '/Library/Frameworks/Python.framework/Versions/3.9/lib/python3.9/xml/sax/xmlreader.py',
   'PYMODULE'),
  ('urllib.parse',
   '/Library/Frameworks/Python.framework/Versions/3.9/lib/python3.9/urllib/parse.py',
   'PYMODULE'),
  ('http.client',
   '/Library/Frameworks/Python.framework/Versions/3.9/lib/python3.9/http/client.py',
   'PYMODULE'),
  ('multiprocessing',
   '/Library/Frameworks/Python.framework/Versions/3.9/lib/python3.9/multiprocessing/__init__.py',
   'PYMODULE'),
  ('concurrent.futures._base',
   '/Library/Frameworks/Python.framework/Versions/3.9/lib/python3.9/concurrent/futures/_base.py',
   'PYMODULE'),
  ('concurrent',
   '/Library/Frameworks/Python.framework/Versions/3.9/lib/python3.9/concurrent/__init__.py',
   'PYMODULE'),
  ('asyncio.trsock',
   '/Library/Frameworks/Python.framework/Versions/3.9/lib/python3.9/asyncio/trsock.py',
   'PYMODULE'),
  ('asyncio.staggered',
   '/Library/Frameworks/Python.framework/Versions/3.9/lib/python3.9/asyncio/staggered.py',
   'PYMODULE'),
  ('asyncio.tasks',
   '/Library/Frameworks/Python.framework/Versions/3.9/lib/python3.9/asyncio/tasks.py',
   'PYMODULE'),
  ('asyncio.base_tasks',
   '/Library/Frameworks/Python.framework/Versions/3.9/lib/python3.9/asyncio/base_tasks.py',
   'PYMODULE'),
  ('asyncio.locks',
   '/Library/Frameworks/Python.framework/Versions/3.9/lib/python3.9/asyncio/locks.py',
   'PYMODULE'),
  ('asyncio.sslproto',
   '/Library/Frameworks/Python.framework/Versions/3.9/lib/python3.9/asyncio/sslproto.py',
   'PYMODULE'),
  ('asyncio.transports',
   '/Library/Frameworks/Python.framework/Versions/3.9/lib/python3.9/asyncio/transports.py',
   'PYMODULE'),
  ('asyncio.protocols',
   '/Library/Frameworks/Python.framework/Versions/3.9/lib/python3.9/asyncio/protocols.py',
   'PYMODULE'),
  ('asyncio.futures',
   '/Library/Frameworks/Python.framework/Versions/3.9/lib/python3.9/asyncio/futures.py',
   'PYMODULE'),
  ('asyncio.exceptions',
   '/Library/Frameworks/Python.framework/Versions/3.9/lib/python3.9/asyncio/exceptions.py',
   'PYMODULE'),
  ('asyncio.coroutines',
   '/Library/Frameworks/Python.framework/Versions/3.9/lib/python3.9/asyncio/coroutines.py',
   'PYMODULE'),
  ('asyncio.base_futures',
   '/Library/Frameworks/Python.framework/Versions/3.9/lib/python3.9/asyncio/base_futures.py',
   'PYMODULE'),
  ('asyncio.format_helpers',
   '/Library/Frameworks/Python.framework/Versions/3.9/lib/python3.9/asyncio/format_helpers.py',
   'PYMODULE'),
  ('asyncio.constants',
   '/Library/Frameworks/Python.framework/Versions/3.9/lib/python3.9/asyncio/constants.py',
   'PYMODULE'),
  ('unittest.signals',
   '/Library/Frameworks/Python.framework/Versions/3.9/lib/python3.9/unittest/signals.py',
   'PYMODULE'),
  ('unittest.main',
   '/Library/Frameworks/Python.framework/Versions/3.9/lib/python3.9/unittest/main.py',
   'PYMODULE'),
  ('unittest.runner',
   '/Library/Frameworks/Python.framework/Versions/3.9/lib/python3.9/unittest/runner.py',
   'PYMODULE'),
  ('unittest.loader',
   '/Library/Frameworks/Python.framework/Versions/3.9/lib/python3.9/unittest/loader.py',
   'PYMODULE'),
  ('unittest.suite',
   '/Library/Frameworks/Python.framework/Versions/3.9/lib/python3.9/unittest/suite.py',
   'PYMODULE'),
  ('unittest.case',
   '/Library/Frameworks/Python.framework/Versions/3.9/lib/python3.9/unittest/case.py',
   'PYMODULE'),
  ('unittest._log',
   '/Library/Frameworks/Python.framework/Versions/3.9/lib/python3.9/unittest/_log.py',
   'PYMODULE'),
  ('unittest.result',
   '/Library/Frameworks/Python.framework/Versions/3.9/lib/python3.9/unittest/result.py',
   'PYMODULE'),
  ('unittest.util',
   '/Library/Frameworks/Python.framework/Versions/3.9/lib/python3.9/unittest/util.py',
   'PYMODULE'),
  ('pdb',
   '/Library/Frameworks/Python.framework/Versions/3.9/lib/python3.9/pdb.py',
   'PYMODULE'),
  ('pydoc',
   '/Library/Frameworks/Python.framework/Versions/3.9/lib/python3.9/pydoc.py',
   'PYMODULE'),
  ('webbrowser',
   '/Library/Frameworks/Python.framework/Versions/3.9/lib/python3.9/webbrowser.py',
   'PYMODULE'),
  ('http.server',
   '/Library/Frameworks/Python.framework/Versions/3.9/lib/python3.9/http/server.py',
   'PYMODULE'),
  ('socketserver',
   '/Library/Frameworks/Python.framework/Versions/3.9/lib/python3.9/socketserver.py',
   'PYMODULE'),
  ('html',
   '/Library/Frameworks/Python.framework/Versions/3.9/lib/python3.9/html/__init__.py',
   'PYMODULE'),
  ('html.entities',
   '/Library/Frameworks/Python.framework/Versions/3.9/lib/python3.9/html/entities.py',
   'PYMODULE'),
  ('pydoc_data.topics',
   '/Library/Frameworks/Python.framework/Versions/3.9/lib/python3.9/pydoc_data/topics.py',
   'PYMODULE'),
  ('pydoc_data',
   '/Library/Frameworks/Python.framework/Versions/3.9/lib/python3.9/pydoc_data/__init__.py',
   'PYMODULE'),
  ('tty',
   '/Library/Frameworks/Python.framework/Versions/3.9/lib/python3.9/tty.py',
   'PYMODULE'),
  ('sysconfig',
   '/Library/Frameworks/Python.framework/Versions/3.9/lib/python3.9/sysconfig.py',
   'PYMODULE'),
  ('_sysconfigdata__darwin_darwin',
   '/Library/Frameworks/Python.framework/Versions/3.9/lib/python3.9/_sysconfigdata__darwin_darwin.py',
   'PYMODULE'),
  ('_aix_support',
   '/Library/Frameworks/Python.framework/Versions/3.9/lib/python3.9/_aix_support.py',
   'PYMODULE'),
  ('_bootsubprocess',
   '/Library/Frameworks/Python.framework/Versions/3.9/lib/python3.9/_bootsubprocess.py',
   'PYMODULE'),
  ('_osx_support',
   '/Library/Frameworks/Python.framework/Versions/3.9/lib/python3.9/_osx_support.py',
   'PYMODULE'),
  ('distutils.log',
   '/Library/Frameworks/Python.framework/Versions/3.9/lib/python3.9/distutils/log.py',
   'PYMODULE'),
  ('distutils',
   '/Library/Frameworks/Python.framework/Versions/3.9/lib/python3.9/distutils/__init__.py',
   'PYMODULE'),
  ('distutils.ccompiler',
   '/Library/Frameworks/Python.framework/Versions/3.9/lib/python3.9/distutils/ccompiler.py',
   'PYMODULE'),
  ('distutils.fancy_getopt',
   '/Library/Frameworks/Python.framework/Versions/3.9/lib/python3.9/distutils/fancy_getopt.py',
   'PYMODULE'),
  ('distutils.debug',
   '/Library/Frameworks/Python.framework/Versions/3.9/lib/python3.9/distutils/debug.py',
   'PYMODULE'),
  ('distutils.util',
   '/Library/Frameworks/Python.framework/Versions/3.9/lib/python3.9/distutils/util.py',
   'PYMODULE'),
  ('distutils.filelist',
   '/Library/Frameworks/Python.framework/Versions/3.9/lib/python3.9/distutils/filelist.py',
   'PYMODULE'),
  ('distutils.dep_util',
   '/Library/Frameworks/Python.framework/Versions/3.9/lib/python3.9/distutils/dep_util.py',
   'PYMODULE'),
  ('distutils.dir_util',
   '/Library/Frameworks/Python.framework/Versions/3.9/lib/python3.9/distutils/dir_util.py',
   'PYMODULE'),
  ('distutils.file_util',
   '/Library/Frameworks/Python.framework/Versions/3.9/lib/python3.9/distutils/file_util.py',
   'PYMODULE'),
  ('distutils.spawn',
   '/Library/Frameworks/Python.framework/Versions/3.9/lib/python3.9/distutils/spawn.py',
   'PYMODULE'),
  ('distutils.errors',
   '/Library/Frameworks/Python.framework/Versions/3.9/lib/python3.9/distutils/errors.py',
   'PYMODULE'),
  ('distutils.sysconfig',
   '/Library/Frameworks/Python.framework/Versions/3.9/lib/python3.9/distutils/sysconfig.py',
   'PYMODULE'),
  ('distutils.text_file',
   '/Library/Frameworks/Python.framework/Versions/3.9/lib/python3.9/distutils/text_file.py',
   'PYMODULE'),
  ('platform',
   '/Library/Frameworks/Python.framework/Versions/3.9/lib/python3.9/platform.py',
   'PYMODULE'),
  ('plistlib',
   '/Library/Frameworks/Python.framework/Versions/3.9/lib/python3.9/plistlib.py',
   'PYMODULE'),
  ('tokenize',
   '/Library/Frameworks/Python.framework/Versions/3.9/lib/python3.9/tokenize.py',
   'PYMODULE'),
  ('token',
   '/Library/Frameworks/Python.framework/Versions/3.9/lib/python3.9/token.py',
   'PYMODULE'),
  ('glob',
   '/Library/Frameworks/Python.framework/Versions/3.9/lib/python3.9/glob.py',
   'PYMODULE'),
  ('code',
   '/Library/Frameworks/Python.framework/Versions/3.9/lib/python3.9/code.py',
   'PYMODULE'),
  ('codeop',
   '/Library/Frameworks/Python.framework/Versions/3.9/lib/python3.9/codeop.py',
   'PYMODULE'),
  ('dis',
   '/Library/Frameworks/Python.framework/Versions/3.9/lib/python3.9/dis.py',
   'PYMODULE'),
  ('opcode',
   '/Library/Frameworks/Python.framework/Versions/3.9/lib/python3.9/opcode.py',
   'PYMODULE'),
  ('bdb',
   '/Library/Frameworks/Python.framework/Versions/3.9/lib/python3.9/bdb.py',
   'PYMODULE'),
  ('cmd',
   '/Library/Frameworks/Python.framework/Versions/3.9/lib/python3.9/cmd.py',
   'PYMODULE'),
  ('inspect',
   '/Library/Frameworks/Python.framework/Versions/3.9/lib/python3.9/inspect.py',
   'PYMODULE'),
  ('ast',
   '/Library/Frameworks/Python.framework/Versions/3.9/lib/python3.9/ast.py',
   'PYMODULE'),
  ('difflib',
   '/Library/Frameworks/Python.framework/Versions/3.9/lib/python3.9/difflib.py',
   'PYMODULE'),
  ('__future__',
   '/Library/Frameworks/Python.framework/Versions/3.9/lib/python3.9/__future__.py',
   'PYMODULE'),
  ('_compat_pickle',
   '/Library/Frameworks/Python.framework/Versions/3.9/lib/python3.9/_compat_pickle.py',
   'PYMODULE'),
  ('string',
   '/Library/Frameworks/Python.framework/Versions/3.9/lib/python3.9/string.py',
   'PYMODULE'),
  ('bisect',
   '/Library/Frameworks/Python.framework/Versions/3.9/lib/python3.9/bisect.py',
   'PYMODULE'),
  ('pathlib',
   '/Library/Frameworks/Python.framework/Versions/3.9/lib/python3.9/pathlib.py',
   'PYMODULE'),
  ('ntpath',
   '/Library/Frameworks/Python.framework/Versions/3.9/lib/python3.9/ntpath.py',
   'PYMODULE'),
  ('genericpath',
   '/Library/Frameworks/Python.framework/Versions/3.9/lib/python3.9/genericpath.py',
   'PYMODULE'),
  ('importlib._bootstrap',
   '/Library/Frameworks/Python.framework/Versions/3.9/lib/python3.9/importlib/_bootstrap.py',
   'PYMODULE'),
  ('importlib._bootstrap_external',
   '/Library/Frameworks/Python.framework/Versions/3.9/lib/python3.9/importlib/_bootstrap_external.py',
   'PYMODULE'),
  ('importlib.metadata',
   '/Library/Frameworks/Python.framework/Versions/3.9/lib/python3.9/importlib/metadata.py',
   'PYMODULE'),
  ('configparser',
   '/Library/Frameworks/Python.framework/Versions/3.9/lib/python3.9/configparser.py',
   'PYMODULE'),
  ('csv',
   '/Library/Frameworks/Python.framework/Versions/3.9/lib/python3.9/csv.py',
   'PYMODULE'),
  ('contextlib',
   '/Library/Frameworks/Python.framework/Versions/3.9/lib/python3.9/contextlib.py',
   'PYMODULE'),
  ('threading',
   '/Library/Frameworks/Python.framework/Versions/3.9/lib/python3.9/threading.py',
   'PYMODULE'),
  ('_threading_local',
   '/Library/Frameworks/Python.framework/Versions/3.9/lib/python3.9/_threading_local.py',
   'PYMODULE'),
  ('struct',
   '/Library/Frameworks/Python.framework/Versions/3.9/lib/python3.9/struct.py',
   'PYMODULE'),
  ('posixpath',
   '/Library/Frameworks/Python.framework/Versions/3.9/lib/python3.9/posixpath.py',
   'PYMODULE'),
  ('importlib.util',
   '/Library/Frameworks/Python.framework/Versions/3.9/lib/python3.9/importlib/util.py',
   'PYMODULE'),
  ('tarfile',
   '/Library/Frameworks/Python.framework/Versions/3.9/lib/python3.9/tarfile.py',
   'PYMODULE'),
  ('lzma',
   '/Library/Frameworks/Python.framework/Versions/3.9/lib/python3.9/lzma.py',
   'PYMODULE'),
  ('bz2',
   '/Library/Frameworks/Python.framework/Versions/3.9/lib/python3.9/bz2.py',
   'PYMODULE'),
  ('fnmatch',
   '/Library/Frameworks/Python.framework/Versions/3.9/lib/python3.9/fnmatch.py',
   'PYMODULE'),
  ('stat',
   '/Library/Frameworks/Python.framework/Versions/3.9/lib/python3.9/stat.py',
   'PYMODULE'),
  ('copy',
   '/Library/Frameworks/Python.framework/Versions/3.9/lib/python3.9/copy.py',
   'PYMODULE'),
  ('gettext',
   '/Library/Frameworks/Python.framework/Versions/3.9/lib/python3.9/gettext.py',
   'PYMODULE'),
  ('datetime',
   '/Library/Frameworks/Python.framework/Versions/3.9/lib/python3.9/datetime.py',
   'PYMODULE'),
  ('_strptime',
   '/Library/Frameworks/Python.framework/Versions/3.9/lib/python3.9/_strptime.py',
   'PYMODULE'),
  ('base64',
   '/Library/Frameworks/Python.framework/Versions/3.9/lib/python3.9/base64.py',
   'PYMODULE'),
  ('socket',
   '/Library/Frameworks/Python.framework/Versions/3.9/lib/python3.9/socket.py',
   'PYMODULE'),
  ('stringprep',
   '/Library/Frameworks/Python.framework/Versions/3.9/lib/python3.9/stringprep.py',
   'PYMODULE'),
  ('_py_abc',
   '/Library/Frameworks/Python.framework/Versions/3.9/lib/python3.9/_py_abc.py',
   'PYMODULE'),
  ('tracemalloc',
   '/Library/Frameworks/Python.framework/Versions/3.9/lib/python3.9/tracemalloc.py',
   'PYMODULE'),
  ('xml.etree.ElementTree',
   '/Library/Frameworks/Python.framework/Versions/3.9/lib/python3.9/xml/etree/ElementTree.py',
   'PYMODULE'),
  ('xml.etree.cElementTree',
   '/Library/Frameworks/Python.framework/Versions/3.9/lib/python3.9/xml/etree/cElementTree.py',
   'PYMODULE'),
  ('xml.etree.ElementInclude',
   '/Library/Frameworks/Python.framework/Versions/3.9/lib/python3.9/xml/etree/ElementInclude.py',
   'PYMODULE'),
  ('xml.etree.ElementPath',
   '/Library/Frameworks/Python.framework/Versions/3.9/lib/python3.9/xml/etree/ElementPath.py',
   'PYMODULE'),
  ('xml.etree',
   '/Library/Frameworks/Python.framework/Versions/3.9/lib/python3.9/xml/etree/__init__.py',
   'PYMODULE'),
  ('os',
   '/Library/Frameworks/Python.framework/Versions/3.9/lib/python3.9/os.py',
   'PYMODULE'),
  ('requests',
   '/Library/Frameworks/Python.framework/Versions/3.9/lib/python3.9/site-packages/requests/__init__.py',
   'PYMODULE'),
  ('requests.status_codes',
   '/Library/Frameworks/Python.framework/Versions/3.9/lib/python3.9/site-packages/requests/status_codes.py',
   'PYMODULE'),
  ('requests.structures',
   '/Library/Frameworks/Python.framework/Versions/3.9/lib/python3.9/site-packages/requests/structures.py',
   'PYMODULE'),
  ('requests.compat',
   '/Library/Frameworks/Python.framework/Versions/3.9/lib/python3.9/site-packages/requests/compat.py',
   'PYMODULE'),
  ('http.cookies',
   '/Library/Frameworks/Python.framework/Versions/3.9/lib/python3.9/http/cookies.py',
   'PYMODULE'),
  ('json',
   '/Library/Frameworks/Python.framework/Versions/3.9/lib/python3.9/json/__init__.py',
   'PYMODULE'),
  ('json.encoder',
   '/Library/Frameworks/Python.framework/Versions/3.9/lib/python3.9/json/encoder.py',
   'PYMODULE'),
  ('json.decoder',
   '/Library/Frameworks/Python.framework/Versions/3.9/lib/python3.9/json/decoder.py',
   'PYMODULE'),
  ('json.scanner',
   '/Library/Frameworks/Python.framework/Versions/3.9/lib/python3.9/json/scanner.py',
   'PYMODULE'),
  ('requests.api',
   '/Library/Frameworks/Python.framework/Versions/3.9/lib/python3.9/site-packages/requests/api.py',
   'PYMODULE'),
  ('requests.sessions',
   '/Library/Frameworks/Python.framework/Versions/3.9/lib/python3.9/site-packages/requests/sessions.py',
   'PYMODULE'),
  ('requests.adapters',
   '/Library/Frameworks/Python.framework/Versions/3.9/lib/python3.9/site-packages/requests/adapters.py',
   'PYMODULE'),
  ('urllib3.contrib.socks',
   '/Library/Frameworks/Python.framework/Versions/3.9/lib/python3.9/site-packages/urllib3/contrib/socks.py',
   'PYMODULE'),
  ('urllib3.util.url',
   '/Library/Frameworks/Python.framework/Versions/3.9/lib/python3.9/site-packages/urllib3/util/url.py',
   'PYMODULE'),
  ('idna',
   '/Library/Frameworks/Python.framework/Versions/3.9/lib/python3.9/site-packages/idna/__init__.py',
   'PYMODULE'),
  ('idna.core',
   '/Library/Frameworks/Python.framework/Versions/3.9/lib/python3.9/site-packages/idna/core.py',
   'PYMODULE'),
  ('idna.uts46data',
   '/Library/Frameworks/Python.framework/Versions/3.9/lib/python3.9/site-packages/idna/uts46data.py',
   'PYMODULE'),
  ('idna.intranges',
   '/Library/Frameworks/Python.framework/Versions/3.9/lib/python3.9/site-packages/idna/intranges.py',
   'PYMODULE'),
  ('idna.idnadata',
   '/Library/Frameworks/Python.framework/Versions/3.9/lib/python3.9/site-packages/idna/idnadata.py',
   'PYMODULE'),
  ('idna.package_data',
   '/Library/Frameworks/Python.framework/Versions/3.9/lib/python3.9/site-packages/idna/package_data.py',
   'PYMODULE'),
  ('urllib3.packages.six',
   '/Library/Frameworks/Python.framework/Versions/3.9/lib/python3.9/site-packages/urllib3/packages/six.py',
   'PYMODULE'),
  ('urllib3.packages',
   '/Library/Frameworks/Python.framework/Versions/3.9/lib/python3.9/site-packages/urllib3/packages/__init__.py',
   'PYMODULE'),
  ('urllib3.packages.ssl_match_hostname',
   '/Library/Frameworks/Python.framework/Versions/3.9/lib/python3.9/site-packages/urllib3/packages/ssl_match_hostname/__init__.py',
   'PYMODULE'),
  ('urllib3.packages.ssl_match_hostname._implementation',
   '/Library/Frameworks/Python.framework/Versions/3.9/lib/python3.9/site-packages/urllib3/packages/ssl_match_hostname/_implementation.py',
   'PYMODULE'),
  ('ipaddress',
   '/Library/Frameworks/Python.framework/Versions/3.9/lib/python3.9/ipaddress.py',
   'PYMODULE'),
  ('urllib3.connectionpool',
   '/Library/Frameworks/Python.framework/Versions/3.9/lib/python3.9/site-packages/urllib3/connectionpool.py',
   'PYMODULE'),
  ('urllib3.util.timeout',
   '/Library/Frameworks/Python.framework/Versions/3.9/lib/python3.9/site-packages/urllib3/util/timeout.py',
   'PYMODULE'),
  ('urllib3.util.response',
   '/Library/Frameworks/Python.framework/Versions/3.9/lib/python3.9/site-packages/urllib3/util/response.py',
   'PYMODULE'),
  ('urllib3.util.request',
   '/Library/Frameworks/Python.framework/Versions/3.9/lib/python3.9/site-packages/urllib3/util/request.py',
   'PYMODULE'),
  ('urllib3.util.queue',
   '/Library/Frameworks/Python.framework/Versions/3.9/lib/python3.9/site-packages/urllib3/util/queue.py',
   'PYMODULE'),
  ('urllib3.util.proxy',
   '/Library/Frameworks/Python.framework/Versions/3.9/lib/python3.9/site-packages/urllib3/util/proxy.py',
   'PYMODULE'),
  ('urllib3.util.ssl_',
   '/Library/Frameworks/Python.framework/Versions/3.9/lib/python3.9/site-packages/urllib3/util/ssl_.py',
   'PYMODULE'),
  ('urllib3.util.ssltransport',
   '/Library/Frameworks/Python.framework/Versions/3.9/lib/python3.9/site-packages/urllib3/util/ssltransport.py',
   'PYMODULE'),
  ('urllib3.util.connection',
   '/Library/Frameworks/Python.framework/Versions/3.9/lib/python3.9/site-packages/urllib3/util/connection.py',
   'PYMODULE'),
  ('urllib3.util.wait',
   '/Library/Frameworks/Python.framework/Versions/3.9/lib/python3.9/site-packages/urllib3/util/wait.py',
   'PYMODULE'),
  ('urllib3.contrib._appengine_environ',
   '/Library/Frameworks/Python.framework/Versions/3.9/lib/python3.9/site-packages/urllib3/contrib/_appengine_environ.py',
   'PYMODULE'),
  ('urllib3.request',
   '/Library/Frameworks/Python.framework/Versions/3.9/lib/python3.9/site-packages/urllib3/request.py',
   'PYMODULE'),
  ('urllib3.filepost',
   '/Library/Frameworks/Python.framework/Versions/3.9/lib/python3.9/site-packages/urllib3/filepost.py',
   'PYMODULE'),
  ('urllib3.fields',
   '/Library/Frameworks/Python.framework/Versions/3.9/lib/python3.9/site-packages/urllib3/fields.py',
   'PYMODULE'),
  ('urllib3.connection',
   '/Library/Frameworks/Python.framework/Versions/3.9/lib/python3.9/site-packages/urllib3/connection.py',
   'PYMODULE'),
  ('urllib3._version',
   '/Library/Frameworks/Python.framework/Versions/3.9/lib/python3.9/site-packages/urllib3/_version.py',
   'PYMODULE'),
  ('urllib3._collections',
   '/Library/Frameworks/Python.framework/Versions/3.9/lib/python3.9/site-packages/urllib3/_collections.py',
   'PYMODULE'),
  ('urllib3.util.retry',
   '/Library/Frameworks/Python.framework/Versions/3.9/lib/python3.9/site-packages/urllib3/util/retry.py',
   'PYMODULE'),
  ('urllib3.util',
   '/Library/Frameworks/Python.framework/Versions/3.9/lib/python3.9/site-packages/urllib3/util/__init__.py',
   'PYMODULE'),
  ('urllib3.response',
   '/Library/Frameworks/Python.framework/Versions/3.9/lib/python3.9/site-packages/urllib3/response.py',
   'PYMODULE'),
  ('urllib3.poolmanager',
   '/Library/Frameworks/Python.framework/Versions/3.9/lib/python3.9/site-packages/urllib3/poolmanager.py',
   'PYMODULE'),
  ('requests._internal_utils',
   '/Library/Frameworks/Python.framework/Versions/3.9/lib/python3.9/site-packages/requests/_internal_utils.py',
   'PYMODULE'),
  ('requests.hooks',
   '/Library/Frameworks/Python.framework/Versions/3.9/lib/python3.9/site-packages/requests/hooks.py',
   'PYMODULE'),
  ('requests.cookies',
   '/Library/Frameworks/Python.framework/Versions/3.9/lib/python3.9/site-packages/requests/cookies.py',
   'PYMODULE'),
  ('requests.auth',
   '/Library/Frameworks/Python.framework/Versions/3.9/lib/python3.9/site-packages/requests/auth.py',
   'PYMODULE'),
  ('requests.models',
   '/Library/Frameworks/Python.framework/Versions/3.9/lib/python3.9/site-packages/requests/models.py',
   'PYMODULE'),
  ('requests.packages',
   '/Library/Frameworks/Python.framework/Versions/3.9/lib/python3.9/site-packages/requests/packages.py',
   'PYMODULE'),
  ('requests.utils',
   '/Library/Frameworks/Python.framework/Versions/3.9/lib/python3.9/site-packages/requests/utils.py',
   'PYMODULE'),
  ('requests.certs',
   '/Library/Frameworks/Python.framework/Versions/3.9/lib/python3.9/site-packages/requests/certs.py',
   'PYMODULE'),
  ('certifi',
   '/Library/Frameworks/Python.framework/Versions/3.9/lib/python3.9/site-packages/certifi/__init__.py',
   'PYMODULE'),
  ('certifi.core',
   '/Library/Frameworks/Python.framework/Versions/3.9/lib/python3.9/site-packages/certifi/core.py',
   'PYMODULE'),
  ('importlib.resources',
   '/Library/Frameworks/Python.framework/Versions/3.9/lib/python3.9/importlib/resources.py',
   'PYMODULE'),
  ('requests.__version__',
   '/Library/Frameworks/Python.framework/Versions/3.9/lib/python3.9/site-packages/requests/__version__.py',
   'PYMODULE'),
  ('urllib3.exceptions',
   '/Library/Frameworks/Python.framework/Versions/3.9/lib/python3.9/site-packages/urllib3/exceptions.py',
   'PYMODULE'),
  ('urllib3.contrib.pyopenssl',
   '/Library/Frameworks/Python.framework/Versions/3.9/lib/python3.9/site-packages/urllib3/contrib/pyopenssl.py',
   'PYMODULE'),
  ('urllib3.packages.backports.makefile',
   '/Library/Frameworks/Python.framework/Versions/3.9/lib/python3.9/site-packages/urllib3/packages/backports/makefile.py',
   'PYMODULE'),
  ('urllib3.packages.backports',
   '/Library/Frameworks/Python.framework/Versions/3.9/lib/python3.9/site-packages/urllib3/packages/backports/__init__.py',
   'PYMODULE'),
  ('urllib3.contrib',
   '/Library/Frameworks/Python.framework/Versions/3.9/lib/python3.9/site-packages/urllib3/contrib/__init__.py',
   'PYMODULE'),
  ('requests.exceptions',
   '/Library/Frameworks/Python.framework/Versions/3.9/lib/python3.9/site-packages/requests/exceptions.py',
   'PYMODULE'),
  ('chardet',
   '/Library/Frameworks/Python.framework/Versions/3.9/lib/python3.9/site-packages/chardet/__init__.py',
   'PYMODULE'),
  ('chardet.version',
   '/Library/Frameworks/Python.framework/Versions/3.9/lib/python3.9/site-packages/chardet/version.py',
   'PYMODULE'),
  ('chardet.enums',
   '/Library/Frameworks/Python.framework/Versions/3.9/lib/python3.9/site-packages/chardet/enums.py',
   'PYMODULE'),
  ('chardet.universaldetector',
   '/Library/Frameworks/Python.framework/Versions/3.9/lib/python3.9/site-packages/chardet/universaldetector.py',
   'PYMODULE'),
  ('chardet.sbcsgroupprober',
   '/Library/Frameworks/Python.framework/Versions/3.9/lib/python3.9/site-packages/chardet/sbcsgroupprober.py',
   'PYMODULE'),
  ('chardet.sbcharsetprober',
   '/Library/Frameworks/Python.framework/Versions/3.9/lib/python3.9/site-packages/chardet/sbcharsetprober.py',
   'PYMODULE'),
  ('chardet.charsetprober',
   '/Library/Frameworks/Python.framework/Versions/3.9/lib/python3.9/site-packages/chardet/charsetprober.py',
   'PYMODULE'),
  ('chardet.langturkishmodel',
   '/Library/Frameworks/Python.framework/Versions/3.9/lib/python3.9/site-packages/chardet/langturkishmodel.py',
   'PYMODULE'),
  ('chardet.langthaimodel',
   '/Library/Frameworks/Python.framework/Versions/3.9/lib/python3.9/site-packages/chardet/langthaimodel.py',
   'PYMODULE'),
  ('chardet.langrussianmodel',
   '/Library/Frameworks/Python.framework/Versions/3.9/lib/python3.9/site-packages/chardet/langrussianmodel.py',
   'PYMODULE'),
  ('chardet.langhebrewmodel',
   '/Library/Frameworks/Python.framework/Versions/3.9/lib/python3.9/site-packages/chardet/langhebrewmodel.py',
   'PYMODULE'),
  ('chardet.langgreekmodel',
   '/Library/Frameworks/Python.framework/Versions/3.9/lib/python3.9/site-packages/chardet/langgreekmodel.py',
   'PYMODULE'),
  ('chardet.langbulgarianmodel',
   '/Library/Frameworks/Python.framework/Versions/3.9/lib/python3.9/site-packages/chardet/langbulgarianmodel.py',
   'PYMODULE'),
  ('chardet.hebrewprober',
   '/Library/Frameworks/Python.framework/Versions/3.9/lib/python3.9/site-packages/chardet/hebrewprober.py',
   'PYMODULE'),
  ('chardet.mbcsgroupprober',
   '/Library/Frameworks/Python.framework/Versions/3.9/lib/python3.9/site-packages/chardet/mbcsgroupprober.py',
   'PYMODULE'),
  ('chardet.euctwprober',
   '/Library/Frameworks/Python.framework/Versions/3.9/lib/python3.9/site-packages/chardet/euctwprober.py',
   'PYMODULE'),
  ('chardet.mbcssm',
   '/Library/Frameworks/Python.framework/Versions/3.9/lib/python3.9/site-packages/chardet/mbcssm.py',
   'PYMODULE'),
  ('chardet.chardistribution',
   '/Library/Frameworks/Python.framework/Versions/3.9/lib/python3.9/site-packages/chardet/chardistribution.py',
   'PYMODULE'),
  ('chardet.jisfreq',
   '/Library/Frameworks/Python.framework/Versions/3.9/lib/python3.9/site-packages/chardet/jisfreq.py',
   'PYMODULE'),
  ('chardet.big5freq',
   '/Library/Frameworks/Python.framework/Versions/3.9/lib/python3.9/site-packages/chardet/big5freq.py',
   'PYMODULE'),
  ('chardet.gb2312freq',
   '/Library/Frameworks/Python.framework/Versions/3.9/lib/python3.9/site-packages/chardet/gb2312freq.py',
   'PYMODULE'),
  ('chardet.euckrfreq',
   '/Library/Frameworks/Python.framework/Versions/3.9/lib/python3.9/site-packages/chardet/euckrfreq.py',
   'PYMODULE'),
  ('chardet.euctwfreq',
   '/Library/Frameworks/Python.framework/Versions/3.9/lib/python3.9/site-packages/chardet/euctwfreq.py',
   'PYMODULE'),
  ('chardet.codingstatemachine',
   '/Library/Frameworks/Python.framework/Versions/3.9/lib/python3.9/site-packages/chardet/codingstatemachine.py',
   'PYMODULE'),
  ('chardet.mbcharsetprober',
   '/Library/Frameworks/Python.framework/Versions/3.9/lib/python3.9/site-packages/chardet/mbcharsetprober.py',
   'PYMODULE'),
  ('chardet.big5prober',
   '/Library/Frameworks/Python.framework/Versions/3.9/lib/python3.9/site-packages/chardet/big5prober.py',
   'PYMODULE'),
  ('chardet.cp949prober',
   '/Library/Frameworks/Python.framework/Versions/3.9/lib/python3.9/site-packages/chardet/cp949prober.py',
   'PYMODULE'),
  ('chardet.euckrprober',
   '/Library/Frameworks/Python.framework/Versions/3.9/lib/python3.9/site-packages/chardet/euckrprober.py',
   'PYMODULE'),
  ('chardet.gb2312prober',
   '/Library/Frameworks/Python.framework/Versions/3.9/lib/python3.9/site-packages/chardet/gb2312prober.py',
   'PYMODULE'),
  ('chardet.eucjpprober',
   '/Library/Frameworks/Python.framework/Versions/3.9/lib/python3.9/site-packages/chardet/eucjpprober.py',
   'PYMODULE'),
  ('chardet.jpcntx',
   '/Library/Frameworks/Python.framework/Versions/3.9/lib/python3.9/site-packages/chardet/jpcntx.py',
   'PYMODULE'),
  ('chardet.sjisprober',
   '/Library/Frameworks/Python.framework/Versions/3.9/lib/python3.9/site-packages/chardet/sjisprober.py',
   'PYMODULE'),
  ('chardet.utf8prober',
   '/Library/Frameworks/Python.framework/Versions/3.9/lib/python3.9/site-packages/chardet/utf8prober.py',
   'PYMODULE'),
  ('chardet.latin1prober',
   '/Library/Frameworks/Python.framework/Versions/3.9/lib/python3.9/site-packages/chardet/latin1prober.py',
   'PYMODULE'),
  ('chardet.escprober',
   '/Library/Frameworks/Python.framework/Versions/3.9/lib/python3.9/site-packages/chardet/escprober.py',
   'PYMODULE'),
  ('chardet.escsm',
   '/Library/Frameworks/Python.framework/Versions/3.9/lib/python3.9/site-packages/chardet/escsm.py',
   'PYMODULE'),
  ('chardet.charsetgroupprober',
   '/Library/Frameworks/Python.framework/Versions/3.9/lib/python3.9/site-packages/chardet/charsetgroupprober.py',
   'PYMODULE'),
  ('urllib3',
   '/Library/Frameworks/Python.framework/Versions/3.9/lib/python3.9/site-packages/urllib3/__init__.py',
   'PYMODULE')],
 [('Python',
   '/Library/Frameworks/Python.framework/Versions/3.9/Python',
   'BINARY'),
  ('_statistics',
   '/Library/Frameworks/Python.framework/Versions/3.9/lib/python3.9/lib-dynload/_statistics.cpython-39-darwin.so',
   'EXTENSION'),
  ('_contextvars',
   '/Library/Frameworks/Python.framework/Versions/3.9/lib/python3.9/lib-dynload/_contextvars.cpython-39-darwin.so',
   'EXTENSION'),
  ('_decimal',
   '/Library/Frameworks/Python.framework/Versions/3.9/lib/python3.9/lib-dynload/_decimal.cpython-39-darwin.so',
   'EXTENSION'),
  ('select',
   '/Library/Frameworks/Python.framework/Versions/3.9/lib/python3.9/lib-dynload/select.cpython-39-darwin.so',
   'EXTENSION'),
  ('_posixsubprocess',
   '/Library/Frameworks/Python.framework/Versions/3.9/lib/python3.9/lib-dynload/_posixsubprocess.cpython-39-darwin.so',
   'EXTENSION'),
  ('_asyncio',
   '/Library/Frameworks/Python.framework/Versions/3.9/lib/python3.9/lib-dynload/_asyncio.cpython-39-darwin.so',
   'EXTENSION'),
  ('_queue',
   '/Library/Frameworks/Python.framework/Versions/3.9/lib/python3.9/lib-dynload/_queue.cpython-39-darwin.so',
   'EXTENSION'),
  ('mmap',
   '/Library/Frameworks/Python.framework/Versions/3.9/lib/python3.9/lib-dynload/mmap.cpython-39-darwin.so',
   'EXTENSION'),
  ('_posixshmem',
   '/Library/Frameworks/Python.framework/Versions/3.9/lib/python3.9/lib-dynload/_posixshmem.cpython-39-darwin.so',
   'EXTENSION'),
  ('_ctypes',
   '/Library/Frameworks/Python.framework/Versions/3.9/lib/python3.9/lib-dynload/_ctypes.cpython-39-darwin.so',
   'EXTENSION'),
  ('array',
   '/Library/Frameworks/Python.framework/Versions/3.9/lib/python3.9/lib-dynload/array.cpython-39-darwin.so',
   'EXTENSION'),
  ('_multiprocessing',
   '/Library/Frameworks/Python.framework/Versions/3.9/lib/python3.9/lib-dynload/_multiprocessing.cpython-39-darwin.so',
   'EXTENSION'),
  ('pyexpat',
   '/Library/Frameworks/Python.framework/Versions/3.9/lib/python3.9/lib-dynload/pyexpat.cpython-39-darwin.so',
   'EXTENSION'),
  ('_scproxy',
   '/Library/Frameworks/Python.framework/Versions/3.9/lib/python3.9/lib-dynload/_scproxy.cpython-39-darwin.so',
   'EXTENSION'),
  ('termios',
   '/Library/Frameworks/Python.framework/Versions/3.9/lib/python3.9/lib-dynload/termios.cpython-39-darwin.so',
   'EXTENSION'),
  ('unicodedata',
   '/Library/Frameworks/Python.framework/Versions/3.9/lib/python3.9/lib-dynload/unicodedata.cpython-39-darwin.so',
   'EXTENSION'),
  ('readline',
   '/Library/Frameworks/Python.framework/Versions/3.9/lib/python3.9/lib-dynload/readline.cpython-39-darwin.so',
   'EXTENSION'),
  ('_opcode',
   '/Library/Frameworks/Python.framework/Versions/3.9/lib/python3.9/lib-dynload/_opcode.cpython-39-darwin.so',
   'EXTENSION'),
  ('_pickle',
   '/Library/Frameworks/Python.framework/Versions/3.9/lib/python3.9/lib-dynload/_pickle.cpython-39-darwin.so',
   'EXTENSION'),
  ('_hashlib',
   '/Library/Frameworks/Python.framework/Versions/3.9/lib/python3.9/lib-dynload/_hashlib.cpython-39-darwin.so',
   'EXTENSION'),
  ('_sha3',
   '/Library/Frameworks/Python.framework/Versions/3.9/lib/python3.9/lib-dynload/_sha3.cpython-39-darwin.so',
   'EXTENSION'),
  ('_blake2',
   '/Library/Frameworks/Python.framework/Versions/3.9/lib/python3.9/lib-dynload/_blake2.cpython-39-darwin.so',
   'EXTENSION'),
  ('_sha256',
   '/Library/Frameworks/Python.framework/Versions/3.9/lib/python3.9/lib-dynload/_sha256.cpython-39-darwin.so',
   'EXTENSION'),
  ('_md5',
   '/Library/Frameworks/Python.framework/Versions/3.9/lib/python3.9/lib-dynload/_md5.cpython-39-darwin.so',
   'EXTENSION'),
  ('_sha1',
   '/Library/Frameworks/Python.framework/Versions/3.9/lib/python3.9/lib-dynload/_sha1.cpython-39-darwin.so',
   'EXTENSION'),
  ('_sha512',
   '/Library/Frameworks/Python.framework/Versions/3.9/lib/python3.9/lib-dynload/_sha512.cpython-39-darwin.so',
   'EXTENSION'),
  ('_random',
   '/Library/Frameworks/Python.framework/Versions/3.9/lib/python3.9/lib-dynload/_random.cpython-39-darwin.so',
   'EXTENSION'),
  ('_bisect',
   '/Library/Frameworks/Python.framework/Versions/3.9/lib/python3.9/lib-dynload/_bisect.cpython-39-darwin.so',
   'EXTENSION'),
  ('math',
   '/Library/Frameworks/Python.framework/Versions/3.9/lib/python3.9/lib-dynload/math.cpython-39-darwin.so',
   'EXTENSION'),
  ('_csv',
   '/Library/Frameworks/Python.framework/Versions/3.9/lib/python3.9/lib-dynload/_csv.cpython-39-darwin.so',
   'EXTENSION'),
  ('_struct',
   '/Library/Frameworks/Python.framework/Versions/3.9/lib/python3.9/lib-dynload/_struct.cpython-39-darwin.so',
   'EXTENSION'),
  ('binascii',
   '/Library/Frameworks/Python.framework/Versions/3.9/lib/python3.9/lib-dynload/binascii.cpython-39-darwin.so',
   'EXTENSION'),
  ('resource',
   '/Library/Frameworks/Python.framework/Versions/3.9/lib/python3.9/lib-dynload/resource.cpython-39-darwin.so',
   'EXTENSION'),
  ('grp',
   '/Library/Frameworks/Python.framework/Versions/3.9/lib/python3.9/lib-dynload/grp.cpython-39-darwin.so',
   'EXTENSION'),
  ('_lzma',
   '/Library/Frameworks/Python.framework/Versions/3.9/lib/python3.9/lib-dynload/_lzma.cpython-39-darwin.so',
   'EXTENSION'),
  ('_bz2',
   '/Library/Frameworks/Python.framework/Versions/3.9/lib/python3.9/lib-dynload/_bz2.cpython-39-darwin.so',
   'EXTENSION'),
  ('zlib',
   '/Library/Frameworks/Python.framework/Versions/3.9/lib/python3.9/lib-dynload/zlib.cpython-39-darwin.so',
   'EXTENSION'),
  ('_datetime',
   '/Library/Frameworks/Python.framework/Versions/3.9/lib/python3.9/lib-dynload/_datetime.cpython-39-darwin.so',
   'EXTENSION'),
  ('_socket',
   '/Library/Frameworks/Python.framework/Versions/3.9/lib/python3.9/lib-dynload/_socket.cpython-39-darwin.so',
   'EXTENSION'),
  ('_ssl',
   '/Library/Frameworks/Python.framework/Versions/3.9/lib/python3.9/lib-dynload/_ssl.cpython-39-darwin.so',
   'EXTENSION'),
  ('_heapq',
   '/Library/Frameworks/Python.framework/Versions/3.9/lib/python3.9/lib-dynload/_heapq.cpython-39-darwin.so',
   'EXTENSION'),
  ('_multibytecodec',
   '/Library/Frameworks/Python.framework/Versions/3.9/lib/python3.9/lib-dynload/_multibytecodec.cpython-39-darwin.so',
   'EXTENSION'),
  ('_codecs_jp',
   '/Library/Frameworks/Python.framework/Versions/3.9/lib/python3.9/lib-dynload/_codecs_jp.cpython-39-darwin.so',
   'EXTENSION'),
  ('_codecs_iso2022',
   '/Library/Frameworks/Python.framework/Versions/3.9/lib/python3.9/lib-dynload/_codecs_iso2022.cpython-39-darwin.so',
   'EXTENSION'),
  ('_codecs_cn',
   '/Library/Frameworks/Python.framework/Versions/3.9/lib/python3.9/lib-dynload/_codecs_cn.cpython-39-darwin.so',
   'EXTENSION'),
  ('_codecs_kr',
   '/Library/Frameworks/Python.framework/Versions/3.9/lib/python3.9/lib-dynload/_codecs_kr.cpython-39-darwin.so',
   'EXTENSION'),
  ('_codecs_tw',
   '/Library/Frameworks/Python.framework/Versions/3.9/lib/python3.9/lib-dynload/_codecs_tw.cpython-39-darwin.so',
   'EXTENSION'),
  ('_codecs_hk',
   '/Library/Frameworks/Python.framework/Versions/3.9/lib/python3.9/lib-dynload/_codecs_hk.cpython-39-darwin.so',
   'EXTENSION'),
  ('_elementtree',
   '/Library/Frameworks/Python.framework/Versions/3.9/lib/python3.9/lib-dynload/_elementtree.cpython-39-darwin.so',
   'EXTENSION'),
  ('_json',
   '/Library/Frameworks/Python.framework/Versions/3.9/lib/python3.9/lib-dynload/_json.cpython-39-darwin.so',
   'EXTENSION'),
  ('libncursesw.5.dylib',
   '/Library/Frameworks/Python.framework/Versions/3.9/lib/libncursesw.5.dylib',
   'BINARY'),
  ('libssl.1.1.dylib',
   '/Library/Frameworks/Python.framework/Versions/3.9/lib/libssl.1.1.dylib',
   'BINARY'),
  ('libcrypto.1.1.dylib',
   '/Library/Frameworks/Python.framework/Versions/3.9/lib/libcrypto.1.1.dylib',
   'BINARY')],
 [],
 [],
 [('base_library.zip',
   '/Users/hp/WebDev/muis-id-museaal-nr/build/muis/base_library.zip',
   'DATA'),
  ('certifi/cacert.pem',
   '/Library/Frameworks/Python.framework/Versions/3.9/lib/python3.9/site-packages/certifi/cacert.pem',
   'DATA'),
  ('include/python3.9/pyconfig.h',
   '/Library/Frameworks/Python.framework/Versions/3.9/include/python3.9/pyconfig.h',
   'DATA'),
  ('lib/python3.9/config-3.9-darwin/Makefile',
   '/Library/Frameworks/Python.framework/Versions/3.9/lib/python3.9/config-3.9-darwin/Makefile',
   'DATA')],
 [])
